{
  "project_info": {
    "project_number": "195421912072",
    "project_id": "costaccountant-3a6bc",
    "storage_bucket": "costaccountant-3a6bc.appspot.com"
  },
  "client": [
    {
      "client_info": {
        "mobilesdk_app_id": "1:195421912072:android:82b5742f219e1e5f9f65bd",
        "android_client_info": {
          "package_name": "hu.bme.aut.android.costaccountant"
        }
      },
      "oauth_client": [
        {
          "client_id": "195421912072-lkcoviqgkktu80vre0ubfir44cadt09q.apps.googleusercontent.com",
          "client_type": 3
        }
      ],
      "api_key": [
        {
          "current_key": "AIzaSyCl9icgrD7i-mn9R8TtA5K1bvWe4btPd5g"
        }
      ],
      "services": {
        "appinvite_service": {
          "other_platform_oauth_client": [
            {
              "client_id": "195421912072-lkcoviqgkktu80vre0ubfir44cadt09q.apps.googleusercontent.com",
              "client_type": 3
            }
          ]
        }
      }
    }
  ],
  "configuration_version": "1"
}